%YAML 1.1
%TAG !u! tag:unity3d.com,2011:
--- !u!114 &-7379083410506685670
MonoBehaviour:
  m_ObjectHideFlags: 0
  m_CorrespondingSourceObject: {fileID: 0}
  m_PrefabInstance: {fileID: 0}
  m_PrefabAsset: {fileID: 0}
  m_GameObject: {fileID: 4685095944248721325}
  m_Enabled: 1
  m_EditorHideFlags: 0
  m_Script: {fileID: 11500000, guid: 6e0e99169d78b3b4c91b1de9745f5281, type: 3}
  m_Name: 
  m_EditorClassIdentifier: 
--- !u!114 &8096799597298459397
MonoBehaviour:
  m_ObjectHideFlags: 0
  m_CorrespondingSourceObject: {fileID: 0}
  m_PrefabInstance: {fileID: 0}
  m_PrefabAsset: {fileID: 0}
  m_GameObject: {fileID: 4685095944248721325}
  m_Enabled: 1
  m_EditorHideFlags: 0
  m_Script: {fileID: 11500000, guid: 383592bcf11ceb64f8b007e0f2e46ed1, type: 3}
  m_Name: 
  m_EditorClassIdentifier: 
--- !u!1 &8269881724865053671
GameObject:
  m_ObjectHideFlags: 0
  m_CorrespondingSourceObject: {fileID: 0}
  m_PrefabInstance: {fileID: 0}
  m_PrefabAsset: {fileID: 0}
  serializedVersion: 6
  m_Component:
  - component: {fileID: 7518474685084074675}
  m_Layer: 0
  m_Name: Boquilla
  m_TagString: Untagged
  m_Icon: {fileID: 0}
  m_NavMeshLayer: 0
  m_StaticEditorFlags: 0
  m_IsActive: 1
--- !u!4 &7518474685084074675
Transform:
  m_ObjectHideFlags: 0
  m_CorrespondingSourceObject: {fileID: 0}
  m_PrefabInstance: {fileID: 0}
  m_PrefabAsset: {fileID: 0}
  m_GameObject: {fileID: 8269881724865053671}
  m_LocalRotation: {x: -0, y: 0, z: -0, w: 1}
  m_LocalPosition: {x: -0.0022, y: 0.0387, z: 0.5433}
  m_LocalScale: {x: 1, y: 1, z: 1}
  m_Children: []
  m_Father: {fileID: 4687975611138957049}
  m_RootOrder: 0
  m_LocalEulerAnglesHint: {x: 0, y: 0, z: 0}
--- !u!1001 &4683916234644694529
PrefabInstance:
  m_ObjectHideFlags: 0
  serializedVersion: 2
  m_Modification:
    m_TransformParent: {fileID: 0}
    m_Modifications:
    - target: {fileID: 1215029005244844, guid: cfcb332d67619214087fa9778edd768a, type: 3}
      propertyPath: m_Name
      value: M40A3 Rifle_prefab Variant
      objectReference: {fileID: 0}
    - target: {fileID: 4384874954717432, guid: cfcb332d67619214087fa9778edd768a, type: 3}
      propertyPath: m_LocalPosition.x
      value: -18.898
      objectReference: {fileID: 0}
    - target: {fileID: 4384874954717432, guid: cfcb332d67619214087fa9778edd768a, type: 3}
      propertyPath: m_LocalPosition.y
      value: 5.282
      objectReference: {fileID: 0}
    - target: {fileID: 4384874954717432, guid: cfcb332d67619214087fa9778edd768a, type: 3}
      propertyPath: m_LocalPosition.z
      value: -17.177
      objectReference: {fileID: 0}
    - target: {fileID: 4384874954717432, guid: cfcb332d67619214087fa9778edd768a, type: 3}
      propertyPath: m_LocalRotation.x
      value: 0
      objectReference: {fileID: 0}
    - target: {fileID: 4384874954717432, guid: cfcb332d67619214087fa9778edd768a, type: 3}
      propertyPath: m_LocalRotation.y
      value: -0
      objectReference: {fileID: 0}
    - target: {fileID: 4384874954717432, guid: cfcb332d67619214087fa9778edd768a, type: 3}
      propertyPath: m_LocalRotation.z
      value: -0
      objectReference: {fileID: 0}
    - target: {fileID: 4384874954717432, guid: cfcb332d67619214087fa9778edd768a, type: 3}
      propertyPath: m_LocalRotation.w
      value: 1
      objectReference: {fileID: 0}
    - target: {fileID: 4384874954717432, guid: cfcb332d67619214087fa9778edd768a, type: 3}
      propertyPath: m_RootOrder
      value: 0
      objectReference: {fileID: 0}
    - target: {fileID: 4384874954717432, guid: cfcb332d67619214087fa9778edd768a, type: 3}
      propertyPath: m_LocalEulerAnglesHint.x
      value: 0
      objectReference: {fileID: 0}
    - target: {fileID: 4384874954717432, guid: cfcb332d67619214087fa9778edd768a, type: 3}
      propertyPath: m_LocalEulerAnglesHint.y
      value: 0
      objectReference: {fileID: 0}
    - target: {fileID: 4384874954717432, guid: cfcb332d67619214087fa9778edd768a, type: 3}
      propertyPath: m_LocalEulerAnglesHint.z
      value: 0
      objectReference: {fileID: 0}
    - target: {fileID: 23516765868514804, guid: cfcb332d67619214087fa9778edd768a,
        type: 3}
      propertyPath: m_Materials.Array.data[0]
      value: 
      objectReference: {fileID: 2100000, guid: be05bbea108668844a7428d0ef6ad8e5, type: 2}
    m_RemovedComponents: []
  m_SourcePrefab: {fileID: 100100000, guid: cfcb332d67619214087fa9778edd768a, type: 3}
--- !u!1 &4685095944248721325 stripped
GameObject:
  m_CorrespondingSourceObject: {fileID: 1215029005244844, guid: cfcb332d67619214087fa9778edd768a,
    type: 3}
  m_PrefabInstance: {fileID: 4683916234644694529}
  m_PrefabAsset: {fileID: 0}
--- !u!4 &4687975611138957049 stripped
Transform:
  m_CorrespondingSourceObject: {fileID: 4384874954717432, guid: cfcb332d67619214087fa9778edd768a,
    type: 3}
  m_PrefabInstance: {fileID: 4683916234644694529}
  m_PrefabAsset: {fileID: 0}
